{
  "code": 200,
  "status": "Ok",
  "copyright": "© 2019 MARVEL",
  "attributionText": "Data provided by Marvel. © 2019 MARVEL",
  "attributionHTML": "<a href=\"http://marvel.com\">Data provided by Marvel. © 2019 MARVEL</a>",
  "etag": "58955fb0c6548dd4175c4941e925085098e66154",
  "data": {
    "offset": 0,
    "limit": 20,
    "total": 1491,
    "count": 20,
    "results": []
  }
}